<svg id="hlist-arrow" xmlns="http://www.w3.org/2000/svg" width="39.048" height="39.048" viewBox="0 0 39.048 39.048">
  <rect id="Rectangle_15" data-name="Rectangle 15" width="39.048" height="39.048" fill="none"/>
  <path id="Path_1" data-name="Path 1" d="M14.543,2.75,12.914,4.379,28.661,20.126,12.914,35.873,14.543,37.5,31.919,20.126Z" transform="translate(-2.829 -0.602)" fill="#d4d4d4"/>
</svg>
