<svg xmlns="http://www.w3.org/2000/svg" width="28" height="28" viewBox="0 0 28 28">
  <g id="success_notif" transform="translate(-853 -494)">
    <g id="iconfinder_check-mark-80px_510930_1_" data-name="iconfinder_check-mark-80px_510930 (1)" transform="translate(839.11 476.892)">
      <path id="Path_14" data-name="Path 14" d="M33.483,26.565l-6.812,6.812L22.48,29.185l-1.572,1.572,5.763,5.763,8.384-8.383Z" transform="translate(0 0)" fill="#ecffbd"/>
    </g>
    <g id="Ellipse_3" data-name="Ellipse 3" transform="translate(853 494)" fill="none" stroke="#ecffbd" stroke-width="2">
      <circle cx="14" cy="14" r="14" stroke="none"/>
      <circle cx="14" cy="14" r="13" fill="none"/>
    </g>
  </g>
</svg>
