<svg xmlns="http://www.w3.org/2000/svg" width="40" height="40" viewBox="0 0 40 40">
  <g id="Symbol_29_3" data-name="Symbol 29 – 3" transform="translate(-722 -545)">
    <rect id="Rectangle_56" data-name="Rectangle 56" width="40" height="40" rx="3" transform="translate(722 545)" fill="#d94040"/>
    <path id="minus" d="M78.608,224H65.265a1.324,1.324,0,0,0,0,2.646H78.608a1.324,1.324,0,0,0,0-2.646Z" transform="translate(670.063 339.677)" fill="#fff"/>
  </g>
</svg>
