<svg xmlns="http://www.w3.org/2000/svg" width="40" height="40" viewBox="0 0 40 40">
  <g id="Symbol_28_4" data-name="Symbol 28 – 4" transform="translate(-584 -600)">
    <rect id="Rectangle_56" data-name="Rectangle 56" width="40" height="40" rx="3" transform="translate(584 600)" fill="#96b64b"/>
    <path id="plus" d="M15.76,6.3H10.507V1.051A1.054,1.054,0,0,0,9.456,0h-2.1A1.054,1.054,0,0,0,6.3,1.051V6.3H1.051A1.054,1.054,0,0,0,0,7.355v2.1a1.054,1.054,0,0,0,1.051,1.051H6.3V15.76a1.054,1.054,0,0,0,1.051,1.051h2.1a1.054,1.054,0,0,0,1.051-1.051V10.507H15.76a1.054,1.054,0,0,0,1.051-1.051v-2.1A1.054,1.054,0,0,0,15.76,6.3Z" transform="translate(596 611.36)" fill="#fff"/>
  </g>
</svg>
