<svg xmlns="http://www.w3.org/2000/svg" width="13.501" height="18" viewBox="0 0 13.501 18">
  <g id="location" transform="translate(-4)">
    <path id="Path_7" data-name="Path 7" d="M13.377,12.5A3.375,3.375,0,1,0,10,9.121,3.379,3.379,0,0,0,13.377,12.5Zm0-6.187a2.813,2.813,0,1,1-2.812,2.813A2.815,2.815,0,0,1,13.377,6.309Z" transform="translate(-2.626 -2.514)" fill="#707070" fill-rule="evenodd"/>
    <path id="Path_8" data-name="Path 8" d="M10.75,0A6.733,6.733,0,0,0,4,6.751c0,3.937,3.376,7.966,5.837,10.8a1.375,1.375,0,0,0,.892.453h.043a1.376,1.376,0,0,0,.892-.453c2.462-2.831,5.837-6.859,5.837-10.8A6.734,6.734,0,0,0,10.75,0Zm.066,16.809a.683.683,0,0,1-.076.055.562.562,0,0,0-.073-.075C8.606,14.417,5.125,10.414,5.125,6.751a5.626,5.626,0,1,1,11.251,0C16.376,10.414,12.9,14.417,10.816,16.809Z" transform="translate(0 0)" fill="#707070" fill-rule="evenodd"/>
  </g>
</svg>
