<svg xmlns="http://www.w3.org/2000/svg" width="10.126" height="6.076" viewBox="0 0 10.126 6.076">
  <path id="arrow_down" d="M166.076,97.025,165.053,96,160,101.063h0l5.053,5.063,1.022-1.025-4.028-4.038Z" transform="translate(-96 166.076) rotate(-90)" fill="#a9a9a9"/>
</svg>
