<svg xmlns="http://www.w3.org/2000/svg" width="14" height="14" viewBox="0 0 14 14">
  <path id="settings" d="M31.949,42.906a2.063,2.063,0,0,0,3.5,1.458l3.722-3.724,1,1a1.475,1.475,0,0,0,.382,1.429L42,44.513a1.456,1.456,0,1,0,2.059-2.059l-1.447-1.447a1.475,1.475,0,0,0-1.429-.382l-1-.995.642-.642a4.172,4.172,0,0,0,3.935-1.056,3.9,3.9,0,0,0,1.19-2.569v-.05a.58.58,0,0,0-.586-.575.6.6,0,0,0-.414.166l-.172.169-.589.577a2.1,2.1,0,0,1-1.467.575,2.1,2.1,0,0,1-2.05-2.05,2.1,2.1,0,0,1,.575-1.467l.577-.589.169-.172a.6.6,0,0,0,.166-.414.58.58,0,0,0-.575-.586h-.05a3.9,3.9,0,0,0-2.569,1.19A4.168,4.168,0,0,0,37.91,36.07l-.644.644-2.692-2.695v-.738l-1.75-.875-.875.875.875,1.75h.735l2.7,2.692-3.722,3.724A2.057,2.057,0,0,0,31.949,42.906Zm1.458-.146a.729.729,0,1,1,.729.729A.729.729,0,0,1,33.407,42.76Z" transform="translate(-31.949 -30.948)" fill="#a3a3a3" fill-rule="evenodd"/>
</svg>
